decoder-BCD-7segments/simulation/qsim/bcdTo7Segments.msim.vcd
$comment
	File created using the following command:
		vcd file bcdTo7Segments.msim.vcd -direction
$end
$date
	Fri Oct 31 15:07:21 2025
$end
$version
	ModelSim Version 2020.1
$end
$timescale
	1ps
$end

$scope module decoderBCD7segments_vlg_vec_tst $end
$var reg 1 ! in_A $end
$var reg 1 " in_B $end
$var reg 1 # in_C $end
$var reg 1 $ in_D $end
$var wire 1 % a $end
$var wire 1 & b $end
$var wire 1 ' c $end
$var wire 1 ( d $end
$var wire 1 ) e $end
$var wire 1 * f $end
$var wire 1 + g $end

$scope module i1 $end
$var wire 1 , gnd $end
$var wire 1 - vcc $end
$var wire 1 . unknown $end
$var tri1 1 / devclrn $end
$var tri1 1 0 devpor $end
$var tri1 1 1 devoe $end
$var wire 1 2 ~QUARTUS_CREATED_GND~I_combout $end
$var wire 1 3 in_C~input_o $end
$var wire 1 4 in_D~input_o $end
$var wire 1 5 in_B~input_o $end
$var wire 1 6 inst13~combout $end
$var wire 1 7 in_A~input_o $end
$var wire 1 8 inst17~0_combout $end
$var wire 1 9 inst20~combout $end
$var wire 1 : inst18~0_combout $end
$var wire 1 ; inst26~combout $end
$var wire 1 < inst9~combout $end
$var wire 1 = inst10~0_combout $end
$upscope $end
$upscope $end
$enddefinitions $end
#0
$dumpvars
0!
0"
0#
0$
0%
0&
0'
0(
0)
0*
1+
0,
1-
x.
1/
10
11
02
03
04
05
06
07
08
09
0:
1;
0<
0=
$end
#10000
1$
14
1<
1:
19
18
1(
1)
1*
1%
#20000
1#
0$
13
04
0<
0;
09
08
16
1'
0(
0)
0+
0%
#30000
1$
14
19
06
0'
1)
#40000
1"
0#
0$
15
03
04
1<
0:
18
1(
0*
1%
#50000
1$
14
1=
0<
08
0(
0%
1&
#60000
1#
0$
13
04
09
0)
#70000
1$
14
0=
1;
1:
19
18
1(
1)
1*
1+
0&
#80000
1!
0"
0#
0$
17
05
03
04
0;
0:
09
08
0(
0)
0*
0+
#90000
1$
14
19
1)
#100000
1#
0$
13
04
09
16
1'
0)
#110000
1$
14
19
06
0'
1)
#120000
1"
0#
0$
15
03
04
1<
1%
#130000
1$
14
0<
0%
#140000
1#
0$
13
04
09
0)
#150000
1$
14
1;
19
1)
1+
#160000
0!
0"
0#
0$
07
05
03
04
09
0)
#170000
1$
14
1<
1:
19
18
1(
1)
1*
1%
#180000
1#
0$
13
04
0<
0;
09
08
16
1'
0(
0)
0+
0%
#190000
1$
14
19
06
0'
1)
#200000
1"
0#
0$
15
03
04
1<
0:
18
1(
0*
1%
#210000
1$
14
1=
0<
08
0(
0%
1&
#220000
1#
0$
13
04
09
0)
#230000
1$
14
0=
1;
1:
19
18
1(
1)
1*
1+
0&
#240000
1!
0"
0#
0$
17
05
03
04
0;
0:
09
08
0(
0)
0*
0+
#250000
1$
14
19
1)
#260000
1#
0$
13
04
09
16
1'
0)
#270000
1$
14
19
06
0'
1)
#280000
1"
0#
0$
15
03
04
1<
1%
#290000
1$
14
0<
0%
#300000
1#
0$
13
04
09
0)
#310000
1$
14
1;
19
1)
1+
#320000
0!
0"
0#
0$
07
05
03
04
09
0)
#330000
1$
14
1<
1:
19
18
1(
1)
1*
1%
#340000
1#
0$
13
04
0<
0;
09
08
16
1'
0(
0)
0+
0%
#350000
1$
14
19
06
0'
1)
#360000
1"
0#
0$
15
03
04
1<
0:
18
1(
0*
1%
#370000
1$
14
1=
0<
08
0(
0%
1&
#380000
1#
0$
13
04
09
0)
#390000
1$
14
0=
1;
1:
19
18
1(
1)
1*
1+
0&
#400000
1!
0"
0#
0$
17
05
03
04
0;
0:
09
08
0(
0)
0*
0+
#410000
1$
14
19
1)
#420000
1#
0$
13
04
09
16
1'
0)
#430000
1$
14
19
06
0'
1)
#440000
1"
0#
0$
15
03
04
1<
1%
#450000
1$
14
0<
0%
#460000
1#
0$
13
04
09
0)
#470000
1$
14
1;
19
1)
1+
#480000
0!
0"
0#
0$
07
05
03
04
09
0)
#490000
1$
14
1<
1:
19
18
1(
1)
1*
1%
#500000
1#
0$
13
04
0<
0;
09
08
16
1'
0(
0)
0+
0%
#510000
1$
14
19
06
0'
1)
#520000
1"
0#
0$
15
03
04
1<
0:
18
1(
0*
1%
#530000
1$
14
1=
0<
08
0(
0%
1&
#540000
1#
0$
13
04
09
0)
#550000
1$
14
0=
1;
1:
19
18
1(
1)
1*
1+
0&
#560000
1!
0"
0#
0$
17
05
03
04
0;
0:
09
08
0(
0)
0*
0+
#570000
1$
14
19
1)
#580000
1#
0$
13
04
09
16
1'
0)
#590000
1$
14
19
06
0'
1)
#600000
1"
0#
0$
15
03
04
1<
1%
#610000
1$
14
0<
0%
#620000
1#
0$
13
04
09
0)
#630000
1$
14
1;
19
1)
1+
#640000
0!
0"
0#
0$
07
05
03
04
09
0)
#650000
1$
14
1<
1:
19
18
1(
1)
1*
1%
#660000
1#
0$
13
04
0<
0;
09
08
16
1'
0(
0)
0+
0%
#670000
1$
14
19
06
0'
1)
#680000
1"
0#
0$
15
03
04
1<
0:
18
1(
0*
1%
#690000
1$
14
1=
0<
08
0(
0%
1&
#700000
1#
0$
13
04
09
0)
#710000
1$
14
0=
1;
1:
19
18
1(
1)
1*
1+
0&
#720000
1!
0"
0#
0$
17
05
03
04
0;
0:
09
08
0(
0)
0*
0+
#730000
1$
14
19
1)
#740000
1#
0$
13
04
09
16
1'
0)
#750000
1$
14
19
06
0'
1)
#760000
1"
0#
0$
15
03
04
1<
1%
#770000
1$
14
0<
0%
#780000
1#
0$
13
04
09
0)
#790000
1$
14
1;
19
1)
1+
#800000
0!
0"
0#
0$
07
05
03
04
09
0)
#810000
1$
14
1<
1:
19
18
1(
1)
1*
1%
#820000
1#
0$
13
04
0<
0;
09
08
16
1'
0(
0)
0+
0%
#830000
1$
14
19
06
0'
1)
#840000
1"
0#
0$
15
03
04
1<
0:
18
1(
0*
1%
#850000
1$
14
1=
0<
08
0(
0%
1&
#860000
1#
0$
13
04
09
0)
#870000
1$
14
0=
1;
1:
19
18
1(
1)
1*
1+
0&
#880000
1!
0"
0#
0$
17
05
03
04
0;
0:
09
08
0(
0)
0*
0+
#890000
1$
14
19
1)
#900000
1#
0$
13
04
09
16
1'
0)
#910000
1$
14
19
06
0'
1)
#920000
1"
0#
0$
15
03
04
1<
1%
#930000
1$
14
0<
0%
#940000
1#
0$
13
04
09
0)
#950000
1$
14
1;
19
1)
1+
#960000
0!
0"
0#
0$
07
05
03
04
09
0)
#970000
1$
14
1<
1:
19
18
1(
1)
1*
1%
#980000
1#
0$
13
04
0<
0;
09
08
16
1'
0(
0)
0+
0%
#990000
1$
14
19
06
0'
1)
