fullAdder/simulation/qsim/fullAdder.msim.vcd
$comment
	File created using the following command:
		vcd file fullAdder.msim.vcd -direction
$end
$date
	Sat Oct 25 02:40:24 2025
$end
$version
	ModelSim Version 2020.1
$end
$timescale
	1ps
$end

$scope module adderFourBits_vlg_vec_tst $end
$var reg 1 ! A0 $end
$var reg 1 " A1 $end
$var reg 1 # A2 $end
$var reg 1 $ A3 $end
$var reg 1 % B0 $end
$var reg 1 & B1 $end
$var reg 1 ' B2 $end
$var reg 1 ( B3 $end
$var reg 1 ) FIRST_CARRY $end
$var wire 1 * LAST_CARRY $end
$var wire 1 + S1 $end
$var wire 1 , S2 $end
$var wire 1 - S3 $end
$var wire 1 . S4 $end

$scope module i1 $end
$var wire 1 / gnd $end
$var wire 1 0 vcc $end
$var wire 1 1 unknown $end
$var tri1 1 2 devclrn $end
$var tri1 1 3 devpor $end
$var tri1 1 4 devoe $end
$var wire 1 5 ~QUARTUS_CREATED_GND~I_combout $end
$var wire 1 6 FIRST_CARRY~input_o $end
$var wire 1 7 B0~input_o $end
$var wire 1 8 A0~input_o $end
$var wire 1 9 inst|inst~combout $end
$var wire 1 : A1~input_o $end
$var wire 1 ; B1~input_o $end
$var wire 1 < inst1|inst~combout $end
$var wire 1 = inst1|inst4~combout $end
$var wire 1 > A2~input_o $end
$var wire 1 ? B2~input_o $end
$var wire 1 @ inst3|inst~combout $end
$var wire 1 A B3~input_o $end
$var wire 1 B A3~input_o $end
$var wire 1 C inst2|inst~combout $end
$var wire 1 D inst2|inst4~combout $end
$upscope $end
$upscope $end
$enddefinitions $end
#0
$dumpvars
0!
0"
0#
0$
0%
0&
0'
0(
0)
0*
0+
0,
0-
0.
0/
10
x1
12
13
14
05
06
07
08
09
0:
0;
0<
0=
0>
0?
0@
0A
0B
0C
0D
$end
#10000
1%
1&
1'
1(
17
1;
1?
1A
1C
1@
1<
19
1+
1,
1-
1.
#20000
1!
1"
1#
1$
0%
0&
0'
0(
18
1:
1>
1B
07
0;
0?
0A
#30000
1%
1&
1'
1(
17
1;
1?
1A
1=
1D
0@
09
0+
0-
1*
1@
1-
#40000
0!
0"
0#
0$
0%
0&
0'
0(
08
0:
0>
0B
07
0;
0?
0A
0=
0D
0C
0<
0,
0.
0*
0@
0-
#50000
1%
1&
1'
1(
17
1;
1?
1A
1C
1@
1<
19
1+
1,
1-
1.
#60000
1!
1"
1#
1$
0%
0&
0'
0(
18
1:
1>
1B
07
0;
0?
0A
#70000
1%
1&
1'
1(
17
1;
1?
1A
1=
1D
0@
09
0+
0-
1*
1@
1-
#80000
0!
0"
0#
0$
0%
0&
0'
0(
08
0:
0>
0B
07
0;
0?
0A
0=
0D
0C
0<
0,
0.
0*
0@
0-
#90000
1%
1&
1'
1(
17
1;
1?
1A
1C
1@
1<
19
1+
1,
1-
1.
#100000
1!
1"
1#
1$
0%
0&
0'
0(
18
1:
1>
1B
07
0;
0?
0A
#110000
1%
1&
1'
1(
17
1;
1?
1A
1=
1D
0@
09
0+
0-
1*
1@
1-
#120000
0!
0"
0#
0$
0%
0&
0'
0(
08
0:
0>
0B
07
0;
0?
0A
0=
0D
0C
0<
0,
0.
0*
0@
0-
#130000
1%
1&
1'
1(
17
1;
1?
1A
1C
1@
1<
19
1+
1,
1-
1.
#140000
1!
1"
1#
1$
0%
0&
0'
0(
18
1:
1>
1B
07
0;
0?
0A
#150000
1%
1&
1'
1(
17
1;
1?
1A
1=
1D
0@
09
0+
0-
1*
1@
1-
#160000
0!
0"
0#
0$
0%
0&
0'
0(
08
0:
0>
0B
07
0;
0?
0A
0=
0D
0C
0<
0,
0.
0*
0@
0-
#170000
1%
1&
1'
1(
17
1;
1?
1A
1C
1@
1<
19
1+
1,
1-
1.
#180000
1!
1"
1#
1$
0%
0&
0'
0(
18
1:
1>
1B
07
0;
0?
0A
#190000
1%
1&
1'
1(
17
1;
1?
1A
1=
1D
0@
09
0+
0-
1*
1@
1-
#200000
0!
0"
0#
0$
0%
0&
0'
0(
08
0:
0>
0B
07
0;
0?
0A
0=
0D
0C
0<
0,
0.
0*
0@
0-
#210000
1%
1&
1'
1(
17
1;
1?
1A
1C
1@
1<
19
1+
1,
1-
1.
#220000
1!
1"
1#
1$
0%
0&
0'
0(
18
1:
1>
1B
07
0;
0?
0A
#230000
1%
1&
1'
1(
17
1;
1?
1A
1=
1D
0@
09
0+
0-
1*
1@
1-
#240000
0!
0"
0#
0$
0%
0&
0'
0(
08
0:
0>
0B
07
0;
0?
0A
0=
0D
0C
0<
0,
0.
0*
0@
0-
#250000
1%
1&
1'
1(
17
1;
1?
1A
1C
1@
1<
19
1+
1,
1-
1.
#260000
1!
1"
1#
1$
0%
0&
0'
0(
18
1:
1>
1B
07
0;
0?
0A
#270000
1%
1&
1'
1(
17
1;
1?
1A
1=
1D
0@
09
0+
0-
1*
1@
1-
#280000
0!
0"
0#
0$
0%
0&
0'
0(
08
0:
0>
0B
07
0;
0?
0A
0=
0D
0C
0<
0,
0.
0*
0@
0-
#290000
1%
1&
1'
1(
17
1;
1?
1A
1C
1@
1<
19
1+
1,
1-
1.
#300000
1!
1"
1#
1$
0%
0&
0'
0(
18
1:
1>
1B
07
0;
0?
0A
#310000
1%
1&
1'
1(
17
1;
1?
1A
1=
1D
0@
09
0+
0-
1*
1@
1-
#320000
0!
0"
0#
0$
0%
0&
0'
0(
08
0:
0>
0B
07
0;
0?
0A
0=
0D
0C
0<
0,
0.
0*
0@
0-
#330000
1%
1&
1'
1(
17
1;
1?
1A
1C
1@
1<
19
1+
1,
1-
1.
#340000
1!
1"
1#
1$
0%
0&
0'
0(
18
1:
1>
1B
07
0;
0?
0A
#350000
1%
1&
1'
1(
17
1;
1?
1A
1=
1D
0@
09
0+
0-
1*
1@
1-
#360000
0!
0"
0#
0$
0%
0&
0'
0(
08
0:
0>
0B
07
0;
0?
0A
0=
0D
0C
0<
0,
0.
0*
0@
0-
#370000
1%
1&
1'
1(
17
1;
1?
1A
1C
1@
1<
19
1+
1,
1-
1.
#380000
1!
1"
1#
1$
0%
0&
0'
0(
18
1:
1>
1B
07
0;
0?
0A
#390000
1%
1&
1'
1(
17
1;
1?
1A
1=
1D
0@
09
0+
0-
1*
1@
1-
#400000
0!
0"
0#
0$
0%
0&
0'
0(
08
0:
0>
0B
07
0;
0?
0A
0=
0D
0C
0<
0,
0.
0*
0@
0-
#410000
1%
1&
1'
1(
17
1;
1?
1A
1C
1@
1<
19
1+
1,
1-
1.
#420000
1!
1"
1#
1$
0%
0&
0'
0(
18
1:
1>
1B
07
0;
0?
0A
#430000
1%
1&
1'
1(
17
1;
1?
1A
1=
1D
0@
09
0+
0-
1*
1@
1-
#440000
0!
0"
0#
0$
0%
0&
0'
0(
08
0:
0>
0B
07
0;
0?
0A
0=
0D
0C
0<
0,
0.
0*
0@
0-
#450000
1%
1&
1'
1(
17
1;
1?
1A
1C
1@
1<
19
1+
1,
1-
1.
#460000
1!
1"
1#
1$
0%
0&
0'
0(
18
1:
1>
1B
07
0;
0?
0A
#470000
1%
1&
1'
1(
17
1;
1?
1A
1=
1D
0@
09
0+
0-
1*
1@
1-
#480000
0!
0"
0#
0$
0%
0&
0'
0(
08
0:
0>
0B
07
0;
0?
0A
0=
0D
0C
0<
0,
0.
0*
0@
0-
#490000
1%
1&
1'
1(
17
1;
1?
1A
1C
1@
1<
19
1+
1,
1-
1.
#500000
1!
1"
1#
1$
0%
0&
0'
0(
18
1:
1>
1B
07
0;
0?
0A
#510000
1%
1&
1'
1(
17
1;
1?
1A
1=
1D
0@
09
0+
0-
1*
1@
1-
#520000
0!
0"
0#
0$
0%
0&
0'
0(
08
0:
0>
0B
07
0;
0?
0A
0=
0D
0C
0<
0,
0.
0*
0@
0-
#530000
1%
1&
1'
1(
17
1;
1?
1A
1C
1@
1<
19
1+
1,
1-
1.
#540000
1!
1"
1#
1$
0%
0&
0'
0(
18
1:
1>
1B
07
0;
0?
0A
#550000
1%
1&
1'
1(
17
1;
1?
1A
1=
1D
0@
09
0+
0-
1*
1@
1-
#560000
0!
0"
0#
0$
0%
0&
0'
0(
08
0:
0>
0B
07
0;
0?
0A
0=
0D
0C
0<
0,
0.
0*
0@
0-
#570000
1%
1&
1'
1(
17
1;
1?
1A
1C
1@
1<
19
1+
1,
1-
1.
#580000
1!
1"
1#
1$
0%
0&
0'
0(
18
1:
1>
1B
07
0;
0?
0A
#590000
1%
1&
1'
1(
17
1;
1?
1A
1=
1D
0@
09
0+
0-
1*
1@
1-
#600000
0!
0"
0#
0$
0%
0&
0'
0(
08
0:
0>
0B
07
0;
0?
0A
0=
0D
0C
0<
0,
0.
0*
0@
0-
#610000
1%
1&
1'
1(
17
1;
1?
1A
1C
1@
1<
19
1+
1,
1-
1.
#620000
1!
1"
1#
1$
0%
0&
0'
0(
18
1:
1>
1B
07
0;
0?
0A
#630000
1%
1&
1'
1(
17
1;
1?
1A
1=
1D
0@
09
0+
0-
1*
1@
1-
#640000
0!
0"
0#
0$
0%
0&
0'
0(
08
0:
0>
0B
07
0;
0?
0A
0=
0D
0C
0<
0,
0.
0*
0@
0-
#650000
1%
1&
1'
1(
17
1;
1?
1A
1C
1@
1<
19
1+
1,
1-
1.
#660000
1!
1"
1#
1$
0%
0&
0'
0(
18
1:
1>
1B
07
0;
0?
0A
#670000
1%
1&
1'
1(
17
1;
1?
1A
1=
1D
0@
09
0+
0-
1*
1@
1-
#680000
0!
0"
0#
0$
0%
0&
0'
0(
08
0:
0>
0B
07
0;
0?
0A
0=
0D
0C
0<
0,
0.
0*
0@
0-
#690000
1%
1&
1'
1(
17
1;
1?
1A
1C
1@
1<
19
1+
1,
1-
1.
#700000
1!
1"
1#
1$
0%
0&
0'
0(
18
1:
1>
1B
07
0;
0?
0A
#710000
1%
1&
1'
1(
17
1;
1?
1A
1=
1D
0@
09
0+
0-
1*
1@
1-
#720000
0!
0"
0#
0$
0%
0&
0'
0(
08
0:
0>
0B
07
0;
0?
0A
0=
0D
0C
0<
0,
0.
0*
0@
0-
#730000
1%
1&
1'
1(
17
1;
1?
1A
1C
1@
1<
19
1+
1,
1-
1.
#740000
1!
1"
1#
1$
0%
0&
0'
0(
18
1:
1>
1B
07
0;
0?
0A
#750000
1%
1&
1'
1(
17
1;
1?
1A
1=
1D
0@
09
0+
0-
1*
1@
1-
#760000
0!
0"
0#
0$
0%
0&
0'
0(
08
0:
0>
0B
07
0;
0?
0A
0=
0D
0C
0<
0,
0.
0*
0@
0-
#770000
1%
1&
1'
1(
17
1;
1?
1A
1C
1@
1<
19
1+
1,
1-
1.
#780000
1!
1"
1#
1$
0%
0&
0'
0(
18
1:
1>
1B
07
0;
0?
0A
#790000
1%
1&
1'
1(
17
1;
1?
1A
1=
1D
0@
09
0+
0-
1*
1@
1-
#800000
0!
0"
0#
0$
0%
0&
0'
0(
08
0:
0>
0B
07
0;
0?
0A
0=
0D
0C
0<
0,
0.
0*
0@
0-
#810000
1%
1&
1'
1(
17
1;
1?
1A
1C
1@
1<
19
1+
1,
1-
1.
#820000
1!
1"
1#
1$
0%
0&
0'
0(
18
1:
1>
1B
07
0;
0?
0A
#830000
1%
1&
1'
1(
17
1;
1?
1A
1=
1D
0@
09
0+
0-
1*
1@
1-
#840000
0!
0"
0#
0$
0%
0&
0'
0(
08
0:
0>
0B
07
0;
0?
0A
0=
0D
0C
0<
0,
0.
0*
0@
0-
#850000
1%
1&
1'
1(
17
1;
1?
1A
1C
1@
1<
19
1+
1,
1-
1.
#860000
1!
1"
1#
1$
0%
0&
0'
0(
18
1:
1>
1B
07
0;
0?
0A
#870000
1%
1&
1'
1(
17
1;
1?
1A
1=
1D
0@
09
0+
0-
1*
1@
1-
#880000
0!
0"
0#
0$
0%
0&
0'
0(
08
0:
0>
0B
07
0;
0?
0A
0=
0D
0C
0<
0,
0.
0*
0@
0-
#890000
1%
1&
1'
1(
17
1;
1?
1A
1C
1@
1<
19
1+
1,
1-
1.
#900000
1!
1"
1#
1$
0%
0&
0'
0(
18
1:
1>
1B
07
0;
0?
0A
#910000
1%
1&
1'
1(
17
1;
1?
1A
1=
1D
0@
09
0+
0-
1*
1@
1-
#920000
0!
0"
0#
0$
0%
0&
0'
0(
08
0:
0>
0B
07
0;
0?
0A
0=
0D
0C
0<
0,
0.
0*
0@
0-
#930000
1%
1&
1'
1(
17
1;
1?
1A
1C
1@
1<
19
1+
1,
1-
1.
#940000
1!
1"
1#
1$
0%
0&
0'
0(
18
1:
1>
1B
07
0;
0?
0A
#950000
1%
1&
1'
1(
17
1;
1?
1A
1=
1D
0@
09
0+
0-
1*
1@
1-
#960000
0!
0"
0#
0$
0%
0&
0'
0(
08
0:
0>
0B
07
0;
0?
0A
0=
0D
0C
0<
0,
0.
0*
0@
0-
#970000
1%
1&
1'
1(
17
1;
1?
1A
1C
1@
1<
19
1+
1,
1-
1.
#980000
1!
1"
1#
1$
0%
0&
0'
0(
18
1:
1>
1B
07
0;
0?
0A
#990000
1%
1&
1'
1(
17
1;
1?
1A
1=
1D
0@
09
0+
0-
1*
1@
1-
