labThree/simulation/qsim/labThree.msim.vcd
$comment
	File created using the following command:
		vcd file labThree.msim.vcd -direction
$end
$date
	Fri Oct 24 15:03:00 2025
$end
$version
	ModelSim Version 2020.1
$end
$timescale
	1ps
$end

$scope module labThree_vlg_vec_tst $end
$var reg 1 ! A $end
$var reg 1 " B $end
$var reg 1 # C $end
$var reg 1 $ D $end
$var wire 1 % OUT $end

$scope module i1 $end
$var wire 1 & gnd $end
$var wire 1 ' vcc $end
$var wire 1 ( unknown $end
$var tri1 1 ) devclrn $end
$var tri1 1 * devpor $end
$var tri1 1 + devoe $end
$var wire 1 , ~QUARTUS_CREATED_GND~I_combout $end
$var wire 1 - C~input_o $end
$var wire 1 . B~input_o $end
$var wire 1 / A~input_o $end
$var wire 1 0 D~input_o $end
$var wire 1 1 inst8~0_combout $end
$upscope $end
$upscope $end
$enddefinitions $end
#0
$dumpvars
0!
0"
0#
0$
1%
0&
1'
x(
1)
1*
1+
0,
0-
0.
0/
00
01
$end
#10000
1$
10
11
0%
#20000
1#
0$
1-
00
01
1%
#30000
1$
10
11
0%
#40000
1"
0#
0$
1.
0-
00
01
1%
#50000
1$
10
11
0%
#60000
1#
0$
1-
00
#70000
1$
10
01
1%
#80000
1!
0"
0#
0$
1/
0.
0-
00
#90000
1$
10
#100000
1#
0$
1-
00
#110000
1$
10
11
0%
#120000
1"
0#
0$
1.
0-
00
01
1%
#130000
1$
10
11
0%
#140000
1#
0$
1-
00
01
1%
#150000
1$
10
11
0%
#160000
0!
0"
0#
0$
0/
0.
0-
00
01
1%
#170000
1$
10
11
0%
#180000
1#
0$
1-
00
01
1%
#190000
1$
10
11
0%
#200000
1"
0#
0$
1.
0-
00
01
1%
#210000
1$
10
11
0%
#220000
1#
0$
1-
00
#230000
1$
10
01
1%
#240000
1!
0"
0#
0$
1/
0.
0-
00
#250000
1$
10
#260000
1#
0$
1-
00
#270000
1$
10
11
0%
#280000
1"
0#
0$
1.
0-
00
01
1%
#290000
1$
10
11
0%
#300000
1#
0$
1-
00
01
1%
#310000
1$
10
11
0%
#320000
0!
0"
0#
0$
0/
0.
0-
00
01
1%
#330000
1$
10
11
0%
#340000
1#
0$
1-
00
01
1%
#350000
1$
10
11
0%
#360000
1"
0#
0$
1.
0-
00
01
1%
#370000
1$
10
11
0%
#380000
1#
0$
1-
00
#390000
1$
10
01
1%
#400000
1!
0"
0#
0$
1/
0.
0-
00
#410000
1$
10
#420000
1#
0$
1-
00
#430000
1$
10
11
0%
#440000
1"
0#
0$
1.
0-
00
01
1%
#450000
1$
10
11
0%
#460000
1#
0$
1-
00
01
1%
#470000
1$
10
11
0%
#480000
0!
0"
0#
0$
0/
0.
0-
00
01
1%
#490000
1$
10
11
0%
#500000
1#
0$
1-
00
01
1%
#510000
1$
10
11
0%
#520000
1"
0#
0$
1.
0-
00
01
1%
#530000
1$
10
11
0%
#540000
1#
0$
1-
00
#550000
1$
10
01
1%
#560000
1!
0"
0#
0$
1/
0.
0-
00
#570000
1$
10
#580000
1#
0$
1-
00
#590000
1$
10
11
0%
#600000
1"
0#
0$
1.
0-
00
01
1%
#610000
1$
10
11
0%
#620000
1#
0$
1-
00
01
1%
#630000
1$
10
11
0%
#640000
0!
0"
0#
0$
0/
0.
0-
00
01
1%
#650000
1$
10
11
0%
#660000
1#
0$
1-
00
01
1%
#670000
1$
10
11
0%
#680000
1"
0#
0$
1.
0-
00
01
1%
#690000
1$
10
11
0%
#700000
1#
0$
1-
00
#710000
1$
10
01
1%
#720000
1!
0"
0#
0$
1/
0.
0-
00
#730000
1$
10
#740000
1#
0$
1-
00
#750000
1$
10
11
0%
#760000
1"
0#
0$
1.
0-
00
01
1%
#770000
1$
10
11
0%
#780000
1#
0$
1-
00
01
1%
#790000
1$
10
11
0%
#800000
0!
0"
0#
0$
0/
0.
0-
00
01
1%
#810000
1$
10
11
0%
#820000
1#
0$
1-
00
01
1%
#830000
1$
10
11
0%
#840000
1"
0#
0$
1.
0-
00
01
1%
#850000
1$
10
11
0%
#860000
1#
0$
1-
00
#870000
1$
10
01
1%
#880000
1!
0"
0#
0$
1/
0.
0-
00
#890000
1$
10
#900000
1#
0$
1-
00
#910000
1$
10
11
0%
#920000
1"
0#
0$
1.
0-
00
01
1%
#930000
1$
10
11
0%
#940000
1#
0$
1-
00
01
1%
#950000
1$
10
11
0%
#960000
0!
0"
0#
0$
0/
0.
0-
00
01
1%
#970000
1$
10
11
0%
#980000
1#
0$
1-
00
01
1%
#990000
1$
10
11
0%
